module mutasi

go 1.22.3

require (
	github.com/go-redis/redis/v8 v8.11.5
	github.com/sirupsen/logrus v1.9.3
	github.com/spf13/viper v1.18.2
	gorm.io/driver/postgres v1.5.7
	gorm.io/gorm v1.25.10
)

require (
	github.com/cespare/xxhash/v2 v2.1.2 // indirect
	github.com/dgryski/go-rendezvous v0.0.0-20200823014737-9f7001d12a5f // indirect
	github.com/fsnotify/fsnotify v1.7.0 // indirect
	github.com/hashicorp/hcl v1.0.0 // indirect
	github.com/jackc/pgpassfile v1.0.0 // indirect
	github.com/jackc/pgservicefile v0.0.0-20221227161230-091c0ba34f0a // indirect
	github.com/jackc/pgx/v5 v5.5.5 // indirect
	github.com/jackc/puddle/v2 v2.2.1 // indirect
	github.com/jinzhu/inflection v1.0.0 // indirect
	github.com/jinzhu/now v1.1.5 // indirect
	github.com/magiconair/properties v1.8.7 // indirect
	github.com/mitchellh/mapstructure v1.5.0 // indirect
	github.com/pelletier/go-toml/v2 v2.1.0 // indirect
	github.com/sagikazarmark/locafero v0.4.0 // indirect
	github.com/sagikazarmark/slog-shim v0.1.0 // indirect
	github.com/sourcegraph/conc v0.3.0 // indirect
	github.com/spf13/afero v1.11.0 // indirect
	github.com/spf13/cast v1.6.0 // indirect
	github.com/spf13/pflag v1.0.5 // indirect
	github.com/subosito/gotenv v1.6.0 // indirect
	go.uber.org/atomic v1.9.0 // indirect
	go.uber.org/multierr v1.9.0 // indirect
	golang.org/x/crypto v0.17.0 // indirect
	golang.org/x/exp v0.0.0-20230905200255-921286631fa9 // indirect
	golang.org/x/sync v0.5.0 // indirect
	golang.org/x/sys v0.15.0 // indirect
	golang.org/x/text v0.14.0 // indirect
	gopkg.in/ini.v1 v1.67.0 // indirect
	gopkg.in/yaml.v3 v3.0.1 // indirect
)
